{
  "DA Warner": [
    3
  ],
  "S Dhawan": [
    4
  ],
  "MC Henriques": [
    2
  ],
  "Yuvraj Singh": [
    3
  ],
  "Mandeep Singh": [
    2
  ],
  "CH Gayle": [
    4
  ],
  "KM Jadhav": [
    2
  ],
  "TM Head": [
    1
  ],
  "Sachin Baby": [
    1
  ],
  "STR Binny": [
    2
  ],
  "SR Watson": [
    5
  ],
  "S Aravind": [
    1
  ],
  "TS Mills": [
    1
  ],
  "PA Patel": [
    5
  ],
  "RG Sharma": [
    6
  ],
  "JC Buttler": [
    2
  ],
  "AT Rayudu": [
    5
  ],
  "KH Pandya": [
    1
  ],
  "N Rana": [
    1
  ],
  "KA Pollard": [
    3
  ],
  "MA Agarwal": [
    3
  ],
  "AM Rahane": [
    6
  ],
  "BA Stokes": [
    1
  ],
  "JJ Roy": [
    1
  ],
  "BB McCullum": [
    4
  ],
  "AJ Finch": [
    3
  ],
  "KD Karthik": [
    3
  ],
  "SPD Smith": [
    4
  ],
  "MS Dhoni": [
    7
  ],
  "DT Christian": [
    2
  ],
  "M Vohra": [
    2
  ],
  "WP Saha": [
    3
  ],
  "HM Amla": [
    2
  ],
  "AR Patel": [
    3
  ],
  "Vishnu Vinod": [
    1
  ],
  "P Negi": [
    2
  ],
  "AP Tare": [
    2
  ],
  "KK Nair": [
    4
  ],
  "SW Billings": [
    1
  ],
  "SV Samson": [
    4
  ],
  "CH Morris": [
    2
  ],
  "CR Brathwaite": [
    1
  ],
  "PJ Cummins": [
    1
  ],
  "RR Pant": [
    3
  ],
  "S Nadeem": [
    2
  ],
  "SK Raina": [
    5
  ],
  "DR Smith": [
    4
  ],
  "DS Kulkarni": [
    2
  ],
  "G Gambhir": [
    6
  ],
  "RV Uthappa": [
    5
  ],
  "CA Lynn": [
    2
  ],
  "YK Pathan": [
    4
  ],
  "SA Yadav": [
    2
  ],
  "CR Woakes": [
    1
  ],
  "SP Narine": [
    2
  ],
  "RA Tripathi": [
    2
  ],
  "F du Plessis": [
    3
  ],
  "R Bhatia": [
    2
  ],
  "DL Chahar": [
    1
  ],
  "A Zampa": [
    1
  ],
  "AB Dinda": [
    2
  ],
  "DJ Hooda": [
    2
  ],
  "BCJ Cutting": [
    1
  ],
  "V Shankar": [
    1
  ],
  "NV Ojha": [
    4
  ],
  "Rashid Khan": [
    1
  ],
  "MP Stoinis": [
    1
  ],
  "GJ Maxwell": [
    4
  ],
  "DA Miller": [
    3
  ],
  "MM Sharma": [
    1
  ],
  "VR Aaron": [
    1
  ],
  "V Kohli": [
    6
  ],
  "AB de Villiers": [
    4
  ],
  "MJ McClenaghan": [
    1
  ],
  "Ankit Sharma": [
    1
  ],
  "MK Tiwary": [
    4
  ],
  "SN Thakur": [
    1
  ],
  "MK Pandey": [
    4
  ],
  "C de Grandhomme": [
    1
  ],
  "SS Iyer": [
    3
  ],
  "EJG Morgan": [
    2
  ],
  "KC Cariappa": [
    1
  ],
  "Ishan Kishan": [
    2
  ],
  "S Badree": [
    1
  ],
  "AF Milne": [
    1
  ],
  "AD Mathews": [
    3
  ],
  "Mohammad Nabi": [
    1
  ],
  "I Sharma": [
    1
  ],
  "RA Jadeja": [
    4
  ],
  "KS Williamson": [
    2
  ],
  "SE Marsh": [
    3
  ],
  "HH Pandya": [
    2
  ],
  "CJ Anderson": [
    2
  ],
  "K Rabada": [
    1
  ],
  "AD Nath": [
    1
  ],
  "AJ Tye": [
    1
  ],
  "NM Coulter-Nile": [
    1
  ],
  "Kuldeep Yadav": [
    1
  ],
  "YS Chahal": [
    1
  ],
  "KV Sharma": [
    2
  ],
  "MJ Guptill": [
    2
  ],
  "Anureet Singh": [
    1
  ],
  "IK Pathan": [
    3
  ],
  "JP Faulkner": [
    2
  ],
  "Harbhajan Singh": [
    4
  ],
  "JJ Bumrah": [
    1
  ],
  "Mohammed Shami": [
    1
  ],
  "SP Jackson": [
    1
  ],
  "PJ Sangwan": [
    1
  ],
  "Ankit Soni": [
    1
  ],
  "A Choudhary": [
    1
  ],
  "Bipul Sharma": [
    1
  ],
  "B Kumar": [
    2
  ],
  "LMP Simmons": [
    2
  ],
  "MN Samuels": [
    1
  ],
  "Z Khan": [
    2
  ],
  "Swapnil Singh": [
    1
  ],
  "P Kumar": [
    3
  ],
  "MM Patel": [
    1
  ],
  "R Tewatia": [
    1
  ],
  "A Mishra": [
    2
  ],
  "CJ Jordan": [
    1
  ],
  "IR Jaggi": [
    1
  ],
  "PP Chawla": [
    3
  ],
  "AS Rajpoot": [
    1
  ],
  "SC Ganguly": [
    4
  ],
  "RT Ponting": [
    1
  ],
  "DJ Hussey": [
    4
  ],
  "R Dravid": [
    3
  ],
  "JH Kallis": [
    4
  ],
  "W Jaffer": [
    1
  ],
  "MV Boucher": [
    2
  ],
  "B Akhil": [
    1
  ],
  "CL White": [
    2
  ],
  "AA Noffke": [
    1
  ],
  "SB Joshi": [
    1
  ],
  "ML Hayden": [
    2
  ],
  "JDP Oram": [
    2
  ],
  "K Goel": [
    2
  ],
  "JR Hopes": [
    1
  ],
  "KC Sangakkara": [
    5
  ],
  "T Kohli": [
    1
  ],
  "DS Lehmann": [
    1
  ],
  "M Kaif": [
    2
  ],
  "M Rawat": [
    1
  ],
  "SK Warne": [
    3
  ],
  "V Sehwag": [
    3
  ],
  "L Ronchi": [
    1
  ],
  "DJ Thornely": [
    1
  ],
  "ST Jayasuriya": [
    2
  ],
  "PR Shah": [
    1
  ],
  "AM Nayar": [
    2
  ],
  "SM Pollock": [
    1
  ],
  "S Chanderpaul": [
    1
  ],
  "LRPL Taylor": [
    2
  ],
  "Y Venugopal Rao": [
    3
  ],
  "VVS Laxman": [
    2
  ],
  "AC Gilchrist": [
    4
  ],
  "SB Styris": [
    1
  ],
  "AS Yadav": [
    1
  ],
  "A Symonds": [
    3
  ],
  "WPUJC Vaas": [
    1
  ],
  "SB Bangar": [
    1
  ],
  "Mohammad Hafeez": [
    1
  ],
  "DPMD Jayawardene": [
    3
  ],
  "B Lee": [
    1
  ],
  "S Sohal": [
    2
  ],
  "Kamran Akmal": [
    1
  ],
  "Shahid Afridi": [
    1
  ],
  "MEK Hussey": [
    4
  ],
  "DJ Bravo": [
    3
  ],
  "MA Khote": [
    1
  ],
  "GC Smith": [
    2
  ],
  "RR Sarwan": [
    1
  ],
  "S Sreesanth": [
    1
  ],
  "SS Tiwary": [
    2
  ],
  "AB Agarkar": [
    1
  ],
  "M Kartik": [
    1
  ],
  "LR Shukla": [
    2
  ],
  "Shoaib Malik": [
    1
  ],
  "MF Maharoof": [
    1
  ],
  "SM Katich": [
    1
  ],
  "TM Srivastava": [
    1
  ],
  "B Chipli": [
    1
  ],
  "DW Steyn": [
    2
  ],
  "DB Das": [
    2
  ],
  "HH Gibbs": [
    3
  ],
  "DNT Zoysa": [
    1
  ],
  "D Kalyankrishna": [
    1
  ],
  "SA Asnodkar": [
    2
  ],
  "Salman Butt": [
    1
  ],
  "Umar Gul": [
    2
  ],
  "SP Fleming": [
    1
  ],
  "S Vidyut": [
    1
  ],
  "JA Morkel": [
    2
  ],
  "LPC Silva": [
    1
  ],
  "DB Ravi Teja": [
    3
  ],
  "RP Singh": [
    2
  ],
  "Misbah-ul-Haq": [
    1
  ],
  "BJ Hodge": [
    2
  ],
  "YV Takawale": [
    1
  ],
  "Mohammad Asif": [
    1
  ],
  "GD McGrath": [
    1
  ],
  "S Badrinath": [
    3
  ],
  "Joginder Sharma": [
    1
  ],
  "M Muralitharan": [
    1
  ],
  "M Ntini": [
    1
  ],
  "S Anirudha": [
    1
  ],
  "Sohail Tanvir": [
    1
  ],
  "SK Trivedi": [
    1
  ],
  "CK Kapugedera": [
    1
  ],
  "A Chopra": [
    1
  ],
  "T Taibu": [
    1
  ],
  "J Arunkumar": [
    1
  ],
  "SP Goswami": [
    2
  ],
  "R Vinay Kumar": [
    3
  ],
  "VRV Singh": [
    1
  ],
  "AD Mascarenhas": [
    2
  ],
  "VY Mahesh": [
    1
  ],
  "SR Tendulkar": [
    3
  ],
  "Younis Khan": [
    1
  ],
  "Niraj Patel": [
    1
  ],
  "D Salunkhe": [
    1
  ],
  "PP Ojha": [
    2
  ],
  "Shoaib Akhtar": [
    1
  ],
  "TM Dilshan": [
    3
  ],
  "DT Patil": [
    1
  ],
  "A Kumble": [
    1
  ],
  "H Das": [
    1
  ],
  "SD Chitnis": [
    1
  ],
  "VS Yeligati": [
    1
  ],
  "MS Gony": [
    1
  ],
  "L Balaji": [
    1
  ],
  "LA Pomersbach": [
    1
  ],
  "A Mukund": [
    1
  ],
  "WA Mota": [
    1
  ],
  "JP Duminy": [
    2
  ],
  "A Flintoff": [
    1
  ],
  "JD Ryder": [
    2
  ],
  "KP Pietersen": [
    3
  ],
  "T Henderson": [
    1
  ],
  "Kamran Khan": [
    1
  ],
  "RS Bopara": [
    2
  ],
  "R Bishnoi": [
    1
  ],
  "PC Valthaty": [
    2
  ],
  "RJ Quiney": [
    2
  ],
  "Yashpal Singh": [
    1
  ],
  "Pankaj Singh": [
    1
  ],
  "FH Edwards": [
    1
  ],
  "AS Raut": [
    1
  ],
  "AN Ghosh": [
    1
  ],
  "BAW Mendis": [
    1
  ],
  "DL Vettori": [
    1
  ],
  "RE van der Merwe": [
    1
  ],
  "AA Bilakhia": [
    1
  ],
  "TL Suman": [
    3
  ],
  "Shoaib Ahmed": [
    1
  ],
  "GR Napier": [
    1
  ],
  "MN van Wyk": [
    1
  ],
  "LA Carseldine": [
    1
  ],
  "M Vijay": [
    4
  ],
  "SB Jakati": [
    1
  ],
  "M Manhas": [
    2
  ],
  "RJ Harris": [
    2
  ],
  "D du Preez": [
    1
  ],
  "RR Raje": [
    1
  ],
  "M Morkel": [
    1
  ],
  "C Nanda": [
    1
  ],
  "SL Malinga": [
    2
  ],
  "J Botha": [
    2
  ],
  "A Singh": [
    1
  ],
  "GJ Bailey": [
    3
  ],
  "AB McDonald": [
    1
  ],
  "Y Nagar": [
    2
  ],
  "R Ashwin": [
    3
  ],
  "T Thushara": [
    1
  ],
  "Mohammad Ashraful": [
    1
  ],
  "CA Pujara": [
    2
  ],
  "Anirudh Singh": [
    1
  ],
  "AA Jhunjhunwala": [
    1
  ],
  "A Uniyal": [
    1
  ],
  "MS Bisla": [
    2
  ],
  "RR Powar": [
    1
  ],
  "JM Kemp": [
    1
  ],
  "OA Shah": [
    2
  ],
  "RS Gavaskar": [
    1
  ],
  "SE Bond": [
    1
  ],
  "DP Nannes": [
    1
  ],
  "MJ Lumb": [
    2
  ],
  "DR Martyn": [
    1
  ],
  "S Narwal": [
    1
  ],
  "P Dogra": [
    1
  ],
  "AB Barath": [
    1
  ],
  "FY Fazal": [
    1
  ],
  "R Sathish": [
    2
  ],
  "MD Mishra": [
    2
  ],
  "S Ladda": [
    1
  ],
  "J Theron": [
    1
  ],
  "SJ Srivastava": [
    1
  ],
  "R Sharma": [
    1
  ],
  "AC Voges": [
    1
  ],
  "Jaskaran Singh": [
    1
  ],
  "KAJ Roach": [
    1
  ],
  "PD Collingwood": [
    1
  ],
  "CK Langeveldt": [
    1
  ],
  "VS Malik": [
    1
  ],
  "SW Tait": [
    1
  ],
  "A Mithun": [
    1
  ],
  "AP Dole": [
    1
  ],
  "R McLaren": [
    1
  ],
  "S Sriram": [
    1
  ],
  "A Nehra": [
    1
  ],
  "KP Appanna": [
    1
  ],
  "C Madan": [
    1
  ],
  "AG Paunikar": [
    1
  ],
  "MR Marsh": [
    1
  ],
  "B Sumanth": [
    1
  ],
  "Harmeet Singh": [
    1
  ],
  "RV Gomez": [
    1
  ],
  "UBT Chand": [
    2
  ],
  "UT Yadav": [
    1
  ],
  "DJ Jacobs": [
    1
  ],
  "Sunny Singh": [
    1
  ],
  "AL Menaria": [
    2
  ],
  "AUK Pathan": [
    1
  ],
  "WD Parnell": [
    2
  ],
  "JJ van der Wath": [
    1
  ],
  "R Ninan": [
    1
  ],
  "MS Wade": [
    1
  ],
  "TD Paine": [
    1
  ],
  "SB Wagh": [
    1
  ],
  "JEC Franklin": [
    1
  ],
  "Shakib Al Hasan": [
    3
  ],
  "S Randiv": [
    1
  ],
  "BJ Haddin": [
    1
  ],
  "NLTC Perera": [
    2
  ],
  "NL McCullum": [
    1
  ],
  "RN ten Doeschate": [
    1
  ],
  "TR Birt": [
    1
  ],
  "M Klinger": [
    1
  ],
  "Harpreet Singh": [
    1
  ],
  "AC Blizzard": [
    1
  ],
  "CA Ingram": [
    1
  ],
  "DH Yagnik": [
    2
  ],
  "KB Arun Karthik": [
    1
  ],
  "ND Doshi": [
    1
  ],
  "CJ Ferguson": [
    1
  ],
  "Y Gnaneswara Rao": [
    1
  ],
  "S Rana": [
    1
  ],
  "DE Bollinger": [
    1
  ],
  "RE Levi": [
    2
  ],
  "HV Patel": [
    2
  ],
  "DJ Harris": [
    1
  ],
  "KK Cooper": [
    1
  ],
  "AA Chavan": [
    1
  ],
  "GB Hogg": [
    1
  ],
  "RR Bhatkal": [
    1
  ],
  "CJ McKay": [
    1
  ],
  "N Saini": [
    1
  ],
  "Azhar Mahmood": [
    2
  ],
  "AC Thomas": [
    1
  ],
  "RJ Peterson": [
    1
  ],
  "A Ashish Reddy": [
    2
  ],
  "V Pratap Singh": [
    1
  ],
  "MJ Clarke": [
    1
  ],
  "Gurkeerat Singh": [
    2
  ],
  "AP Majumdar": [
    1
  ],
  "PA Reddy": [
    1
  ],
  "AD Russell": [
    1
  ],
  "Sunny Gupta": [
    1
  ],
  "MC Juneja": [
    1
  ],
  "GH Vihari": [
    2
  ],
  "MDKJ Perera": [
    1
  ],
  "B Laughlin": [
    1
  ],
  "BMAJ Mendis": [
    1
  ],
  "R Rampaul": [
    1
  ],
  "P Awana": [
    1
  ],
  "SMSM Senanayake": [
    1
  ],
  "BJ Rohrer": [
    1
  ],
  "KL Rahul": [
    3
  ],
  "J Syed Mohammad": [
    1
  ],
  "Q de Kock": [
    2
  ],
  "BB Samantray": [
    2
  ],
  "R Dhawan": [
    1
  ],
  "MG Johnson": [
    3
  ],
  "LJ Wright": [
    1
  ],
  "AG Murtaza": [
    1
  ],
  "IC Pandey": [
    1
  ],
  "X Thalaivan Sargunam": [
    1
  ],
  "DJG Sammy": [
    2
  ],
  "KW Richardson": [
    1
  ],
  "CM Gautam": [
    1
  ],
  "UA Birla": [
    1
  ],
  "Parvez Rasool": [
    1
  ],
  "NJ Maddinson": [
    1
  ],
  "JDS Neesham": [
    1
  ],
  "TG Southee": [
    1
  ],
  "MA Starc": [
    1
  ],
  "BR Dunk": [
    1
  ],
  "RR Rossouw": [
    2
  ],
  "PV Tambe": [
    1
  ],
  "Shivam Sharma": [
    1
  ],
  "VH Zol": [
    1
  ],
  "Imran Tahir": [
    1
  ],
  "R Shukla": [
    1
  ],
  "BE Hendricks": [
    1
  ],
  "M de Lange": [
    1
  ],
  "JO Holder": [
    1
  ],
  "JD Unadkat": [
    1
  ],
  "SA Abbott": [
    1
  ],
  "AN Ahmed": [
    1
  ],
  "SN Khan": [
    1
  ],
  "D Wiese": [
    2
  ],
  "DJ Muthuswami": [
    1
  ],
  "Iqbal Abdulla": [
    1
  ],
  "Karanveer Singh": [
    1
  ],
  "Sandeep Sharma": [
    1
  ],
  "J Suchith": [
    1
  ],
  "S Gopal": [
    1
  ],
  "M Ashwin": [
    1
  ],
  "NS Naik": [
    1
  ],
  "PSP Handscomb": [
    1
  ],
  "UT Khawaja": [
    1
  ],
  "S Kaushik": [
    1
  ],
  "F Behardien": [
    1
  ],
  "KJ Abbott": [
    1
  ],
  "C Munro": [
    1
  ],
  "ER Dwivedi": [
    1
  ]
}